%YAML 1.1
%TAG !u! tag:unity3d.com,2011:
--- !u!1 &8380005778037927922
GameObject:
  m_ObjectHideFlags: 0
  m_CorrespondingSourceObject: {fileID: 0}
  m_PrefabInstance: {fileID: 0}
  m_PrefabAsset: {fileID: 0}
  serializedVersion: 6
  m_Component:
  - component: {fileID: 214264811021134068}
  - component: {fileID: 8552534350554726902}
  m_Layer: 31
  m_Name: Cave_Walls
  m_TagString: Untagged
  m_Icon: {fileID: 0}
  m_NavMeshLayer: 0
  m_StaticEditorFlags: 0
  m_IsActive: 1
--- !u!4 &214264811021134068
Transform:
  m_ObjectHideFlags: 0
  m_CorrespondingSourceObject: {fileID: 0}
  m_PrefabInstance: {fileID: 0}
  m_PrefabAsset: {fileID: 0}
  m_GameObject: {fileID: 8380005778037927922}
  m_LocalRotation: {x: 0, y: 0, z: 0, w: 1}
  m_LocalPosition: {x: 0, y: 0, z: 0}
  m_LocalScale: {x: 1, y: 1, z: 1}
  m_Children:
  - {fileID: 7914696697835102539}
  m_Father: {fileID: 0}
  m_RootOrder: 0
  m_LocalEulerAnglesHint: {x: 0, y: 0, z: 0}
--- !u!156049354 &8552534350554726902
Grid:
  m_ObjectHideFlags: 0
  m_CorrespondingSourceObject: {fileID: 0}
  m_PrefabInstance: {fileID: 0}
  m_PrefabAsset: {fileID: 0}
  m_GameObject: {fileID: 8380005778037927922}
  m_Enabled: 1
  m_CellSize: {x: 0.64, y: 0.64, z: 0}
  m_CellGap: {x: 0, y: 0, z: 0}
  m_CellLayout: 0
  m_CellSwizzle: 0
--- !u!1 &9066796184947948561
GameObject:
  m_ObjectHideFlags: 0
  m_CorrespondingSourceObject: {fileID: 0}
  m_PrefabInstance: {fileID: 0}
  m_PrefabAsset: {fileID: 0}
  serializedVersion: 6
  m_Component:
  - component: {fileID: 7914696697835102539}
  - component: {fileID: 1981625834494857639}
  - component: {fileID: 6806756387880007458}
  m_Layer: 31
  m_Name: Layer1
  m_TagString: Untagged
  m_Icon: {fileID: 0}
  m_NavMeshLayer: 0
  m_StaticEditorFlags: 0
  m_IsActive: 1
--- !u!4 &7914696697835102539
Transform:
  m_ObjectHideFlags: 0
  m_CorrespondingSourceObject: {fileID: 0}
  m_PrefabInstance: {fileID: 0}
  m_PrefabAsset: {fileID: 0}
  m_GameObject: {fileID: 9066796184947948561}
  m_LocalRotation: {x: -0, y: -0, z: -0, w: 1}
  m_LocalPosition: {x: 0, y: 0, z: 0}
  m_LocalScale: {x: 1, y: 1, z: 1}
  m_Children: []
  m_Father: {fileID: 214264811021134068}
  m_RootOrder: 0
  m_LocalEulerAnglesHint: {x: 0, y: 0, z: 0}
--- !u!1839735485 &1981625834494857639
Tilemap:
  m_ObjectHideFlags: 0
  m_CorrespondingSourceObject: {fileID: 0}
  m_PrefabInstance: {fileID: 0}
  m_PrefabAsset: {fileID: 0}
  m_GameObject: {fileID: 9066796184947948561}
  m_Enabled: 1
  m_Tiles:
  - first: {x: 0, y: -7, z: 0}
    second:
      serializedVersion: 2
      m_TileIndex: 48
      m_TileSpriteIndex: 47
      m_TileMatrixIndex: 0
      m_TileColorIndex: 0
      m_TileObjectToInstantiateIndex: 65535
      m_AllTileFlags: 1073741825
  - first: {x: 1, y: -7, z: 0}
    second:
      serializedVersion: 2
      m_TileIndex: 49
      m_TileSpriteIndex: 48
      m_TileMatrixIndex: 0
      m_TileColorIndex: 0
      m_TileObjectToInstantiateIndex: 65535
      m_AllTileFlags: 1073741825
  - first: {x: 2, y: -7, z: 0}
    second:
      serializedVersion: 2
      m_TileIndex: 50
      m_TileSpriteIndex: 49
      m_TileMatrixIndex: 0
      m_TileColorIndex: 0
      m_TileObjectToInstantiateIndex: 65535
      m_AllTileFlags: 1073741825
  - first: {x: 3, y: -7, z: 0}
    second:
      serializedVersion: 2
      m_TileIndex: 51
      m_TileSpriteIndex: 50
      m_TileMatrixIndex: 0
      m_TileColorIndex: 0
      m_TileObjectToInstantiateIndex: 65535
      m_AllTileFlags: 1073741825
  - first: {x: 4, y: -7, z: 0}
    second:
      serializedVersion: 2
      m_TileIndex: 52
      m_TileSpriteIndex: 51
      m_TileMatrixIndex: 0
      m_TileColorIndex: 0
      m_TileObjectToInstantiateIndex: 65535
      m_AllTileFlags: 1073741825
  - first: {x: 5, y: -7, z: 0}
    second:
      serializedVersion: 2
      m_TileIndex: 53
      m_TileSpriteIndex: 52
      m_TileMatrixIndex: 0
      m_TileColorIndex: 0
      m_TileObjectToInstantiateIndex: 65535
      m_AllTileFlags: 1073741825
  - first: {x: 6, y: -7, z: 0}
    second:
      serializedVersion: 2
      m_TileIndex: 54
      m_TileSpriteIndex: 53
      m_TileMatrixIndex: 0
      m_TileColorIndex: 0
      m_TileObjectToInstantiateIndex: 65535
      m_AllTileFlags: 1073741825
  - first: {x: 9, y: -7, z: 0}
    second:
      serializedVersion: 2
      m_TileIndex: 55
      m_TileSpriteIndex: 55
      m_TileMatrixIndex: 0
      m_TileColorIndex: 0
      m_TileObjectToInstantiateIndex: 65535
      m_AllTileFlags: 1073741825
  - first: {x: 0, y: -6, z: 0}
    second:
      serializedVersion: 2
      m_TileIndex: 40
      m_TileSpriteIndex: 39
      m_TileMatrixIndex: 0
      m_TileColorIndex: 0
      m_TileObjectToInstantiateIndex: 65535
      m_AllTileFlags: 1073741825
  - first: {x: 1, y: -6, z: 0}
    second:
      serializedVersion: 2
      m_TileIndex: 41
      m_TileSpriteIndex: 40
      m_TileMatrixIndex: 0
      m_TileColorIndex: 0
      m_TileObjectToInstantiateIndex: 65535
      m_AllTileFlags: 1073741825
  - first: {x: 2, y: -6, z: 0}
    second:
      serializedVersion: 2
      m_TileIndex: 42
      m_TileSpriteIndex: 41
      m_TileMatrixIndex: 0
      m_TileColorIndex: 0
      m_TileObjectToInstantiateIndex: 65535
      m_AllTileFlags: 1073741825
  - first: {x: 3, y: -6, z: 0}
    second:
      serializedVersion: 2
      m_TileIndex: 43
      m_TileSpriteIndex: 42
      m_TileMatrixIndex: 0
      m_TileColorIndex: 0
      m_TileObjectToInstantiateIndex: 65535
      m_AllTileFlags: 1073741825
  - first: {x: 4, y: -6, z: 0}
    second:
      serializedVersion: 2
      m_TileIndex: 44
      m_TileSpriteIndex: 43
      m_TileMatrixIndex: 0
      m_TileColorIndex: 0
      m_TileObjectToInstantiateIndex: 65535
      m_AllTileFlags: 1073741825
  - first: {x: 5, y: -6, z: 0}
    second:
      serializedVersion: 2
      m_TileIndex: 45
      m_TileSpriteIndex: 44
      m_TileMatrixIndex: 0
      m_TileColorIndex: 0
      m_TileObjectToInstantiateIndex: 65535
      m_AllTileFlags: 1073741825
  - first: {x: 6, y: -6, z: 0}
    second:
      serializedVersion: 2
      m_TileIndex: 46
      m_TileSpriteIndex: 45
      m_TileMatrixIndex: 0
      m_TileColorIndex: 0
      m_TileObjectToInstantiateIndex: 65535
      m_AllTileFlags: 1073741825
  - first: {x: 7, y: -6, z: 0}
    second:
      serializedVersion: 2
      m_TileIndex: 47
      m_TileSpriteIndex: 46
      m_TileMatrixIndex: 0
      m_TileColorIndex: 0
      m_TileObjectToInstantiateIndex: 65535
      m_AllTileFlags: 1073741825
  - first: {x: 0, y: -5, z: 0}
    second:
      serializedVersion: 2
      m_TileIndex: 32
      m_TileSpriteIndex: 31
      m_TileMatrixIndex: 0
      m_TileColorIndex: 0
      m_TileObjectToInstantiateIndex: 65535
      m_AllTileFlags: 1073741825
  - first: {x: 1, y: -5, z: 0}
    second:
      serializedVersion: 2
      m_TileIndex: 33
      m_TileSpriteIndex: 32
      m_TileMatrixIndex: 0
      m_TileColorIndex: 0
      m_TileObjectToInstantiateIndex: 65535
      m_AllTileFlags: 1073741825
  - first: {x: 2, y: -5, z: 0}
    second:
      serializedVersion: 2
      m_TileIndex: 34
      m_TileSpriteIndex: 33
      m_TileMatrixIndex: 0
      m_TileColorIndex: 0
      m_TileObjectToInstantiateIndex: 65535
      m_AllTileFlags: 1073741825
  - first: {x: 3, y: -5, z: 0}
    second:
      serializedVersion: 2
      m_TileIndex: 35
      m_TileSpriteIndex: 34
      m_TileMatrixIndex: 0
      m_TileColorIndex: 0
      m_TileObjectToInstantiateIndex: 65535
      m_AllTileFlags: 1073741825
  - first: {x: 4, y: -5, z: 0}
    second:
      serializedVersion: 2
      m_TileIndex: 36
      m_TileSpriteIndex: 35
      m_TileMatrixIndex: 0
      m_TileColorIndex: 0
      m_TileObjectToInstantiateIndex: 65535
      m_AllTileFlags: 1073741825
  - first: {x: 5, y: -5, z: 0}
    second:
      serializedVersion: 2
      m_TileIndex: 37
      m_TileSpriteIndex: 36
      m_TileMatrixIndex: 0
      m_TileColorIndex: 0
      m_TileObjectToInstantiateIndex: 65535
      m_AllTileFlags: 1073741825
  - first: {x: 6, y: -5, z: 0}
    second:
      serializedVersion: 2
      m_TileIndex: 38
      m_TileSpriteIndex: 37
      m_TileMatrixIndex: 0
      m_TileColorIndex: 0
      m_TileObjectToInstantiateIndex: 65535
      m_AllTileFlags: 1073741825
  - first: {x: 7, y: -5, z: 0}
    second:
      serializedVersion: 2
      m_TileIndex: 39
      m_TileSpriteIndex: 38
      m_TileMatrixIndex: 0
      m_TileColorIndex: 0
      m_TileObjectToInstantiateIndex: 65535
      m_AllTileFlags: 1073741825
  - first: {x: 0, y: -4, z: 0}
    second:
      serializedVersion: 2
      m_TileIndex: 24
      m_TileSpriteIndex: 23
      m_TileMatrixIndex: 0
      m_TileColorIndex: 0
      m_TileObjectToInstantiateIndex: 65535
      m_AllTileFlags: 1073741825
  - first: {x: 1, y: -4, z: 0}
    second:
      serializedVersion: 2
      m_TileIndex: 25
      m_TileSpriteIndex: 24
      m_TileMatrixIndex: 0
      m_TileColorIndex: 0
      m_TileObjectToInstantiateIndex: 65535
      m_AllTileFlags: 1073741825
  - first: {x: 2, y: -4, z: 0}
    second:
      serializedVersion: 2
      m_TileIndex: 26
      m_TileSpriteIndex: 25
      m_TileMatrixIndex: 0
      m_TileColorIndex: 0
      m_TileObjectToInstantiateIndex: 65535
      m_AllTileFlags: 1073741825
  - first: {x: 3, y: -4, z: 0}
    second:
      serializedVersion: 2
      m_TileIndex: 27
      m_TileSpriteIndex: 26
      m_TileMatrixIndex: 0
      m_TileColorIndex: 0
      m_TileObjectToInstantiateIndex: 65535
      m_AllTileFlags: 1073741825
  - first: {x: 4, y: -4, z: 0}
    second:
      serializedVersion: 2
      m_TileIndex: 28
      m_TileSpriteIndex: 27
      m_TileMatrixIndex: 0
      m_TileColorIndex: 0
      m_TileObjectToInstantiateIndex: 65535
      m_AllTileFlags: 1073741825
  - first: {x: 5, y: -4, z: 0}
    second:
      serializedVersion: 2
      m_TileIndex: 29
      m_TileSpriteIndex: 28
      m_TileMatrixIndex: 0
      m_TileColorIndex: 0
      m_TileObjectToInstantiateIndex: 65535
      m_AllTileFlags: 1073741825
  - first: {x: 6, y: -4, z: 0}
    second:
      serializedVersion: 2
      m_TileIndex: 30
      m_TileSpriteIndex: 29
      m_TileMatrixIndex: 0
      m_TileColorIndex: 0
      m_TileObjectToInstantiateIndex: 65535
      m_AllTileFlags: 1073741825
  - first: {x: 7, y: -4, z: 0}
    second:
      serializedVersion: 2
      m_TileIndex: 31
      m_TileSpriteIndex: 30
      m_TileMatrixIndex: 0
      m_TileColorIndex: 0
      m_TileObjectToInstantiateIndex: 65535
      m_AllTileFlags: 1073741825
  - first: {x: 0, y: -3, z: 0}
    second:
      serializedVersion: 2
      m_TileIndex: 16
      m_TileSpriteIndex: 15
      m_TileMatrixIndex: 0
      m_TileColorIndex: 0
      m_TileObjectToInstantiateIndex: 65535
      m_AllTileFlags: 1073741825
  - first: {x: 1, y: -3, z: 0}
    second:
      serializedVersion: 2
      m_TileIndex: 17
      m_TileSpriteIndex: 16
      m_TileMatrixIndex: 0
      m_TileColorIndex: 0
      m_TileObjectToInstantiateIndex: 65535
      m_AllTileFlags: 1073741825
  - first: {x: 2, y: -3, z: 0}
    second:
      serializedVersion: 2
      m_TileIndex: 18
      m_TileSpriteIndex: 17
      m_TileMatrixIndex: 0
      m_TileColorIndex: 0
      m_TileObjectToInstantiateIndex: 65535
      m_AllTileFlags: 1073741825
  - first: {x: 3, y: -3, z: 0}
    second:
      serializedVersion: 2
      m_TileIndex: 19
      m_TileSpriteIndex: 18
      m_TileMatrixIndex: 0
      m_TileColorIndex: 0
      m_TileObjectToInstantiateIndex: 65535
      m_AllTileFlags: 1073741825
  - first: {x: 4, y: -3, z: 0}
    second:
      serializedVersion: 2
      m_TileIndex: 20
      m_TileSpriteIndex: 19
      m_TileMatrixIndex: 0
      m_TileColorIndex: 0
      m_TileObjectToInstantiateIndex: 65535
      m_AllTileFlags: 1073741825
  - first: {x: 5, y: -3, z: 0}
    second:
      serializedVersion: 2
      m_TileIndex: 21
      m_TileSpriteIndex: 20
      m_TileMatrixIndex: 0
      m_TileColorIndex: 0
      m_TileObjectToInstantiateIndex: 65535
      m_AllTileFlags: 1073741825
  - first: {x: 6, y: -3, z: 0}
    second:
      serializedVersion: 2
      m_TileIndex: 22
      m_TileSpriteIndex: 21
      m_TileMatrixIndex: 0
      m_TileColorIndex: 0
      m_TileObjectToInstantiateIndex: 65535
      m_AllTileFlags: 1073741825
  - first: {x: 7, y: -3, z: 0}
    second:
      serializedVersion: 2
      m_TileIndex: 23
      m_TileSpriteIndex: 22
      m_TileMatrixIndex: 0
      m_TileColorIndex: 0
      m_TileObjectToInstantiateIndex: 65535
      m_AllTileFlags: 1073741825
  - first: {x: 0, y: -2, z: 0}
    second:
      serializedVersion: 2
      m_TileIndex: 8
      m_TileSpriteIndex: 8
      m_TileMatrixIndex: 0
      m_TileColorIndex: 0
      m_TileObjectToInstantiateIndex: 65535
      m_AllTileFlags: 1073741825
  - first: {x: 1, y: -2, z: 0}
    second:
      serializedVersion: 2
      m_TileIndex: 9
      m_TileSpriteIndex: 54
      m_TileMatrixIndex: 0
      m_TileColorIndex: 1
      m_TileObjectToInstantiateIndex: 65535
      m_AllTileFlags: 1073741827
  - first: {x: 2, y: -2, z: 0}
    second:
      serializedVersion: 2
      m_TileIndex: 10
      m_TileSpriteIndex: 9
      m_TileMatrixIndex: 0
      m_TileColorIndex: 0
      m_TileObjectToInstantiateIndex: 65535
      m_AllTileFlags: 1073741825
  - first: {x: 3, y: -2, z: 0}
    second:
      serializedVersion: 2
      m_TileIndex: 11
      m_TileSpriteIndex: 10
      m_TileMatrixIndex: 0
      m_TileColorIndex: 0
      m_TileObjectToInstantiateIndex: 65535
      m_AllTileFlags: 1073741825
  - first: {x: 4, y: -2, z: 0}
    second:
      serializedVersion: 2
      m_TileIndex: 12
      m_TileSpriteIndex: 11
      m_TileMatrixIndex: 0
      m_TileColorIndex: 0
      m_TileObjectToInstantiateIndex: 65535
      m_AllTileFlags: 1073741825
  - first: {x: 5, y: -2, z: 0}
    second:
      serializedVersion: 2
      m_TileIndex: 13
      m_TileSpriteIndex: 12
      m_TileMatrixIndex: 0
      m_TileColorIndex: 0
      m_TileObjectToInstantiateIndex: 65535
      m_AllTileFlags: 1073741825
  - first: {x: 6, y: -2, z: 0}
    second:
      serializedVersion: 2
      m_TileIndex: 14
      m_TileSpriteIndex: 13
      m_TileMatrixIndex: 0
      m_TileColorIndex: 0
      m_TileObjectToInstantiateIndex: 65535
      m_AllTileFlags: 1073741825
  - first: {x: 7, y: -2, z: 0}
    second:
      serializedVersion: 2
      m_TileIndex: 15
      m_TileSpriteIndex: 14
      m_TileMatrixIndex: 0
      m_TileColorIndex: 0
      m_TileObjectToInstantiateIndex: 65535
      m_AllTileFlags: 1073741825
  - first: {x: 0, y: -1, z: 0}
    second:
      serializedVersion: 2
      m_TileIndex: 0
      m_TileSpriteIndex: 0
      m_TileMatrixIndex: 0
      m_TileColorIndex: 0
      m_TileObjectToInstantiateIndex: 65535
      m_AllTileFlags: 1073741825
  - first: {x: 1, y: -1, z: 0}
    second:
      serializedVersion: 2
      m_TileIndex: 1
      m_TileSpriteIndex: 1
      m_TileMatrixIndex: 0
      m_TileColorIndex: 0
      m_TileObjectToInstantiateIndex: 65535
      m_AllTileFlags: 1073741825
  - first: {x: 2, y: -1, z: 0}
    second:
      serializedVersion: 2
      m_TileIndex: 2
      m_TileSpriteIndex: 2
      m_TileMatrixIndex: 0
      m_TileColorIndex: 0
      m_TileObjectToInstantiateIndex: 65535
      m_AllTileFlags: 1073741825
  - first: {x: 3, y: -1, z: 0}
    second:
      serializedVersion: 2
      m_TileIndex: 3
      m_TileSpriteIndex: 3
      m_TileMatrixIndex: 0
      m_TileColorIndex: 0
      m_TileObjectToInstantiateIndex: 65535
      m_AllTileFlags: 1073741825
  - first: {x: 4, y: -1, z: 0}
    second:
      serializedVersion: 2
      m_TileIndex: 4
      m_TileSpriteIndex: 4
      m_TileMatrixIndex: 0
      m_TileColorIndex: 0
      m_TileObjectToInstantiateIndex: 65535
      m_AllTileFlags: 1073741825
  - first: {x: 5, y: -1, z: 0}
    second:
      serializedVersion: 2
      m_TileIndex: 5
      m_TileSpriteIndex: 5
      m_TileMatrixIndex: 0
      m_TileColorIndex: 0
      m_TileObjectToInstantiateIndex: 65535
      m_AllTileFlags: 1073741825
  - first: {x: 6, y: -1, z: 0}
    second:
      serializedVersion: 2
      m_TileIndex: 6
      m_TileSpriteIndex: 6
      m_TileMatrixIndex: 0
      m_TileColorIndex: 0
      m_TileObjectToInstantiateIndex: 65535
      m_AllTileFlags: 1073741825
  - first: {x: 7, y: -1, z: 0}
    second:
      serializedVersion: 2
      m_TileIndex: 7
      m_TileSpriteIndex: 7
      m_TileMatrixIndex: 0
      m_TileColorIndex: 0
      m_TileObjectToInstantiateIndex: 65535
      m_AllTileFlags: 1073741825
  m_AnimatedTiles: {}
  m_TileAssetArray:
  - m_RefCount: 1
    m_Data: {fileID: 11400000, guid: b4fa8687e0ea0d344a987399a4c6b229, type: 2}
  - m_RefCount: 1
    m_Data: {fileID: 11400000, guid: 234ac8dc21a2caf4894ee424381df1fc, type: 2}
  - m_RefCount: 1
    m_Data: {fileID: 11400000, guid: 079206fcfdfbe934daa0a8434f7dd873, type: 2}
  - m_RefCount: 1
    m_Data: {fileID: 11400000, guid: 88c5d82b82cdf0443af152bf250288e5, type: 2}
  - m_RefCount: 1
    m_Data: {fileID: 11400000, guid: f0a51165ab52e6149973e0aa90ce396b, type: 2}
  - m_RefCount: 1
    m_Data: {fileID: 11400000, guid: f930591d350657b4c9423bb3c9f0fffc, type: 2}
  - m_RefCount: 1
    m_Data: {fileID: 11400000, guid: 887d3b12db5199642a5fa60060a9a1b6, type: 2}
  - m_RefCount: 1
    m_Data: {fileID: 11400000, guid: 542ccf80942401847a60609420ebe6ee, type: 2}
  - m_RefCount: 1
    m_Data: {fileID: 11400000, guid: 88cf2ffed6566394cb9d7f0609dd0616, type: 2}
  - m_RefCount: 1
    m_Data: {fileID: 0}
  - m_RefCount: 1
    m_Data: {fileID: 11400000, guid: 5453fc6b3626ec5429a604e6631fe795, type: 2}
  - m_RefCount: 1
    m_Data: {fileID: 11400000, guid: 969696b251bff6642a5a70088ba15d23, type: 2}
  - m_RefCount: 1
    m_Data: {fileID: 11400000, guid: bd6100a3efce33448b51a0d7731d4838, type: 2}
  - m_RefCount: 1
    m_Data: {fileID: 11400000, guid: 3b515d9906c8f3c478645b0842abf049, type: 2}
  - m_RefCount: 1
    m_Data: {fileID: 11400000, guid: b1ec2226394987a4ba7b90a36c01d963, type: 2}
  - m_RefCount: 1
    m_Data: {fileID: 11400000, guid: 7b026701f1b07f64986e20fd78d6e5a7, type: 2}
  - m_RefCount: 1
    m_Data: {fileID: 11400000, guid: 321c0859e44d5484db773e61c0ed2b17, type: 2}
  - m_RefCount: 1
    m_Data: {fileID: 11400000, guid: e671644e970f2104893db70569d42507, type: 2}
  - m_RefCount: 1
    m_Data: {fileID: 11400000, guid: 404d4a7e7674256439f4fa06ccdf0f8e, type: 2}
  - m_RefCount: 1
    m_Data: {fileID: 11400000, guid: 7978713a8d8ae7e48af4f20a80777086, type: 2}
  - m_RefCount: 1
    m_Data: {fileID: 11400000, guid: 799983050d8cfcb4f9de8b2b363dbdaf, type: 2}
  - m_RefCount: 1
    m_Data: {fileID: 11400000, guid: c94cb39448704e64f88641c1833dd93e, type: 2}
  - m_RefCount: 1
    m_Data: {fileID: 11400000, guid: 8d841e6b42b43ee48a738c8d56804217, type: 2}
  - m_RefCount: 1
    m_Data: {fileID: 11400000, guid: 6faf326370a81de44a635bc5c084251a, type: 2}
  - m_RefCount: 1
    m_Data: {fileID: 11400000, guid: 69059d27084da5140b36f32f3862a795, type: 2}
  - m_RefCount: 1
    m_Data: {fileID: 11400000, guid: c4d3042f0a0fa3043a16debee5efbfeb, type: 2}
  - m_RefCount: 1
    m_Data: {fileID: 11400000, guid: 65d407919ef787e4f9d7b7c3e3085dc2, type: 2}
  - m_RefCount: 1
    m_Data: {fileID: 11400000, guid: 55e4dff216ca1a14eb53a600d5a75a7c, type: 2}
  - m_RefCount: 1
    m_Data: {fileID: 11400000, guid: 1384411b7ae3b2b4fa01c1e44ff2fe0b, type: 2}
  - m_RefCount: 1
    m_Data: {fileID: 11400000, guid: 5e322cf998bbe2642b60e306cf22dfb9, type: 2}
  - m_RefCount: 1
    m_Data: {fileID: 11400000, guid: 80fe4daaa75c5594cb72905346626629, type: 2}
  - m_RefCount: 1
    m_Data: {fileID: 11400000, guid: 5b203eb0792877d45b819a20167eba0c, type: 2}
  - m_RefCount: 1
    m_Data: {fileID: 11400000, guid: 1c286d63369113d48a2ebf5096afce9d, type: 2}
  - m_RefCount: 1
    m_Data: {fileID: 11400000, guid: 64a7ca82d8027b84c84e314ff54c81a9, type: 2}
  - m_RefCount: 1
    m_Data: {fileID: 11400000, guid: bc93862bd057fdb44b2971b8153247ff, type: 2}
  - m_RefCount: 1
    m_Data: {fileID: 11400000, guid: cac710a7feb92a146bab85fde7b8557f, type: 2}
  - m_RefCount: 1
    m_Data: {fileID: 11400000, guid: 4ec51d7c63bc28b49a0cc0e6de3efe3b, type: 2}
  - m_RefCount: 1
    m_Data: {fileID: 11400000, guid: 433f7361b8fe2b54885d4312d2588317, type: 2}
  - m_RefCount: 1
    m_Data: {fileID: 11400000, guid: e738cebe8f90d2e468986eb5690e6105, type: 2}
  - m_RefCount: 1
    m_Data: {fileID: 11400000, guid: bb958ea6a5b24624296060033ef4fdd0, type: 2}
  - m_RefCount: 1
    m_Data: {fileID: 11400000, guid: 930a69abc2d7d5345a3882a34b76f6af, type: 2}
  - m_RefCount: 1
    m_Data: {fileID: 11400000, guid: 0adddc87352ea4f42a4adc7bd48cba31, type: 2}
  - m_RefCount: 1
    m_Data: {fileID: 11400000, guid: 3fddd49461fd23a47a941c5e03d6868b, type: 2}
  - m_RefCount: 1
    m_Data: {fileID: 11400000, guid: 702df65d00fcf9141bca6cdc3a17d4e8, type: 2}
  - m_RefCount: 1
    m_Data: {fileID: 11400000, guid: d24dce29879100b43a1c838b5ef69874, type: 2}
  - m_RefCount: 1
    m_Data: {fileID: 11400000, guid: 1bc4aaca68cc5b34e98b24b2cce81f34, type: 2}
  - m_RefCount: 1
    m_Data: {fileID: 11400000, guid: 866429fdec23caa44bd6b653909db7c1, type: 2}
  - m_RefCount: 1
    m_Data: {fileID: 11400000, guid: 1eb1cece5d2f5b24fb600d65d4106e1e, type: 2}
  - m_RefCount: 1
    m_Data: {fileID: 11400000, guid: a216d70874a2230438fc9ad99a0785a4, type: 2}
  - m_RefCount: 1
    m_Data: {fileID: 11400000, guid: d7203ad2de30c804d9dd9350213bef0f, type: 2}
  - m_RefCount: 1
    m_Data: {fileID: 11400000, guid: d52231d2ed58e654faa2dde2ede3a9d8, type: 2}
  - m_RefCount: 1
    m_Data: {fileID: 11400000, guid: 5eb97852d5bb9514d8fac3fbd64caf37, type: 2}
  - m_RefCount: 1
    m_Data: {fileID: 11400000, guid: d8c03ebd95e4e054f95f81d04abed3a1, type: 2}
  - m_RefCount: 1
    m_Data: {fileID: 11400000, guid: e59ce1c19e736e54a9dcfddd908b1f56, type: 2}
  - m_RefCount: 1
    m_Data: {fileID: 11400000, guid: d321ea65803e57c4da64243867347da4, type: 2}
  - m_RefCount: 1
    m_Data: {fileID: 11400000, guid: b35d0658d6f06964f86c859386b8bd11, type: 2}
  m_TileSpriteArray:
  - m_RefCount: 1
    m_Data: {fileID: 21300000, guid: 823878269b4541f41a038121fe79b004, type: 3}
  - m_RefCount: 1
    m_Data: {fileID: 21300000, guid: 131e64937a801c3478cfb08d1fc5d0fd, type: 3}
  - m_RefCount: 1
    m_Data: {fileID: 21300000, guid: 5386d047f30064e41a2e97ce245550d7, type: 3}
  - m_RefCount: 1
    m_Data: {fileID: 21300000, guid: 3a4f92e13a343d34bb64ca8deb00e8ed, type: 3}
  - m_RefCount: 1
    m_Data: {fileID: 21300000, guid: fcb151ae513bf514f9d5a453227db01f, type: 3}
  - m_RefCount: 1
    m_Data: {fileID: 21300000, guid: 0bf88ebbc7ab6b245a691f6c528b60c4, type: 3}
  - m_RefCount: 1
    m_Data: {fileID: 21300000, guid: 06e8ac9dbda242342a0a14467541b25c, type: 3}
  - m_RefCount: 1
    m_Data: {fileID: 21300000, guid: c689d4761ca79594ba1c44e61ae9a6b0, type: 3}
  - m_RefCount: 1
    m_Data: {fileID: 21300000, guid: f64781fd2bb0a5c4bad7aea79e64c7c5, type: 3}
  - m_RefCount: 1
    m_Data: {fileID: 21300000, guid: da6982a1cead6ab4f94fa9a953e83577, type: 3}
  - m_RefCount: 1
    m_Data: {fileID: 21300000, guid: 18604f78d5937c0439d7a5ea6f4fd81b, type: 3}
  - m_RefCount: 1
    m_Data: {fileID: 21300000, guid: 28062756ec2e7a14caf2bdf03c4b0635, type: 3}
  - m_RefCount: 1
    m_Data: {fileID: 21300000, guid: 50b80bddfd778c74594afb871e85ccd1, type: 3}
  - m_RefCount: 1
    m_Data: {fileID: 21300000, guid: 8f115e85870cbb141b1a09510382bccc, type: 3}
  - m_RefCount: 1
    m_Data: {fileID: 21300000, guid: f8e9b4f1d9b8d5843b2f31a9f8e3b378, type: 3}
  - m_RefCount: 1
    m_Data: {fileID: 21300000, guid: ee25dbd0c651eba43908e4a2c9ea7dd8, type: 3}
  - m_RefCount: 1
    m_Data: {fileID: 21300000, guid: 914276f627b79cc46a95b409f81acebf, type: 3}
  - m_RefCount: 1
    m_Data: {fileID: 21300000, guid: bbd02964c9dcddd49bc7c5b0da4964e1, type: 3}
  - m_RefCount: 1
    m_Data: {fileID: 21300000, guid: 75f93c16f58f8b3458cfabd19f9328dc, type: 3}
  - m_RefCount: 1
    m_Data: {fileID: 21300000, guid: 79a5922bfff5b4242bab6349f2c45ae8, type: 3}
  - m_RefCount: 1
    m_Data: {fileID: 21300000, guid: 8e51b205894a92e4ba5e996541841da7, type: 3}
  - m_RefCount: 1
    m_Data: {fileID: 21300000, guid: 7ce408e189651374d91f706da22b3ac3, type: 3}
  - m_RefCount: 1
    m_Data: {fileID: 21300000, guid: 4e24f671dfc4a50449087cef628898a9, type: 3}
  - m_RefCount: 1
    m_Data: {fileID: 21300000, guid: 9d462b537c13bdb4791536e73e8013db, type: 3}
  - m_RefCount: 1
    m_Data: {fileID: 21300000, guid: 616420ee6c576154e96e28dc9bada51d, type: 3}
  - m_RefCount: 1
    m_Data: {fileID: 21300000, guid: 79dd7e9fe32a30648a6f07a2d31aeddc, type: 3}
  - m_RefCount: 1
    m_Data: {fileID: 21300000, guid: 86a519ba2cec4d843a36a791bf952f01, type: 3}
  - m_RefCount: 1
    m_Data: {fileID: 21300000, guid: ebce9ba0928b3144ca638bc67971c413, type: 3}
  - m_RefCount: 1
    m_Data: {fileID: 21300000, guid: 8c89391b9aa3305469eb26ac9ad15c62, type: 3}
  - m_RefCount: 1
    m_Data: {fileID: 21300000, guid: 40362979cdc84384097f0ca86a78babb, type: 3}
  - m_RefCount: 1
    m_Data: {fileID: 21300000, guid: 1f788d5060b8bdb4f8b80a10b4f39b80, type: 3}
  - m_RefCount: 1
    m_Data: {fileID: 21300000, guid: 4063de81b865c9f42be6ddabc0d7a45a, type: 3}
  - m_RefCount: 1
    m_Data: {fileID: 21300000, guid: 493c2401944a61049bb3dd2cd70291b6, type: 3}
  - m_RefCount: 1
    m_Data: {fileID: 21300000, guid: 1f02d0012e1b143468aef2c5ca9c4511, type: 3}
  - m_RefCount: 1
    m_Data: {fileID: 21300000, guid: 73cd6df1cea03884f8688909872ba6aa, type: 3}
  - m_RefCount: 1
    m_Data: {fileID: 21300000, guid: 6fc5aafb133a2df45a09dce49d14a167, type: 3}
  - m_RefCount: 1
    m_Data: {fileID: 21300000, guid: 0b5be5284d8686b4a915d48a309301c2, type: 3}
  - m_RefCount: 1
    m_Data: {fileID: 21300000, guid: 17e276c13ba5a154781bfa2100545343, type: 3}
  - m_RefCount: 1
    m_Data: {fileID: 21300000, guid: 991445b6e7d4ece4db4c45d173f18a7e, type: 3}
  - m_RefCount: 1
    m_Data: {fileID: 21300000, guid: 1d5c6dc225d89b94887f5c8225c33431, type: 3}
  - m_RefCount: 1
    m_Data: {fileID: 21300000, guid: 2a1c03419ce4a1c41948f71b894bc104, type: 3}
  - m_RefCount: 1
    m_Data: {fileID: 21300000, guid: 7da01af9330363f458a265056d96d7f0, type: 3}
  - m_RefCount: 1
    m_Data: {fileID: 21300000, guid: 1f2ef13bfab850340be4f4bcc06b2888, type: 3}
  - m_RefCount: 1
    m_Data: {fileID: 21300000, guid: d27cd480baf1fa64e98733f29af53ee5, type: 3}
  - m_RefCount: 1
    m_Data: {fileID: 21300000, guid: 463a04b606988bd49bb7e1e88b9b92c8, type: 3}
  - m_RefCount: 1
    m_Data: {fileID: 21300000, guid: 0e449d5ce87c8554ba2c289400cdcb08, type: 3}
  - m_RefCount: 1
    m_Data: {fileID: 21300000, guid: 4640f4e83d9970b47b376a084db74158, type: 3}
  - m_RefCount: 1
    m_Data: {fileID: 21300000, guid: 4bff87bb122ee2841adc7cdc9806c686, type: 3}
  - m_RefCount: 1
    m_Data: {fileID: 21300000, guid: bb3ff942e4be8374583632b8aca36c9e, type: 3}
  - m_RefCount: 1
    m_Data: {fileID: 21300000, guid: 2f174f34f2ae04944929549843ff3174, type: 3}
  - m_RefCount: 1
    m_Data: {fileID: 21300000, guid: 34f73a5578c861c40a71b8708c3becbc, type: 3}
  - m_RefCount: 1
    m_Data: {fileID: 21300000, guid: 717b658b2a78036489798a240b268061, type: 3}
  - m_RefCount: 1
    m_Data: {fileID: 21300000, guid: 6411c846df084ec41982496d4356ec9a, type: 3}
  - m_RefCount: 1
    m_Data: {fileID: 21300000, guid: e32a9d7fa669b414ba34fec0f3ecd3ea, type: 3}
  - m_RefCount: 1
    m_Data: {fileID: 0}
  - m_RefCount: 1
    m_Data: {fileID: 21300000, guid: b844da765aafd974eb340101ff46238d, type: 3}
  m_TileMatrixArray:
  - m_RefCount: 56
    m_Data:
      e00: 1
      e01: 0
      e02: 0
      e03: 0
      e10: 0
      e11: 1
      e12: 0
      e13: 0
      e20: 0
      e21: 0
      e22: 1
      e23: 0
      e30: 0
      e31: 0
      e32: 0
      e33: 1
  m_TileColorArray:
  - m_RefCount: 55
    m_Data: {r: 1, g: 1, b: 1, a: 1}
  - m_RefCount: 1
    m_Data: {r: 0.7043016, g: 0.42068243, b: 0.46761727, a: 1}
  m_TileObjectToInstantiateArray: []
  m_AnimationFrameRate: 1
  m_Color: {r: 1, g: 1, b: 1, a: 1}
  m_Origin: {x: 0, y: -7, z: 0}
  m_Size: {x: 10, y: 7, z: 1}
  m_TileAnchor: {x: 0.5, y: 0.5, z: 0}
  m_TileOrientation: 0
  m_TileOrientationMatrix:
    e00: 1
    e01: 0
    e02: 0
    e03: 0
    e10: 0
    e11: 1
    e12: 0
    e13: 0
    e20: 0
    e21: 0
    e22: 1
    e23: 0
    e30: 0
    e31: 0
    e32: 0
    e33: 1
--- !u!483693784 &6806756387880007458
TilemapRenderer:
  m_ObjectHideFlags: 0
  m_CorrespondingSourceObject: {fileID: 0}
  m_PrefabInstance: {fileID: 0}
  m_PrefabAsset: {fileID: 0}
  m_GameObject: {fileID: 9066796184947948561}
  m_Enabled: 0
  m_CastShadows: 0
  m_ReceiveShadows: 0
  m_DynamicOccludee: 0
  m_MotionVectors: 1
  m_LightProbeUsage: 0
  m_ReflectionProbeUsage: 0
  m_RayTracingMode: 0
  m_RenderingLayerMask: 1
  m_RendererPriority: 0
  m_Materials:
  - {fileID: 10754, guid: 0000000000000000f000000000000000, type: 0}
  m_StaticBatchInfo:
    firstSubMesh: 0
    subMeshCount: 0
  m_StaticBatchRoot: {fileID: 0}
  m_ProbeAnchor: {fileID: 0}
  m_LightProbeVolumeOverride: {fileID: 0}
  m_ScaleInLightmap: 1
  m_ReceiveGI: 1
  m_PreserveUVs: 0
  m_IgnoreNormalsForChartDetection: 0
  m_ImportantGI: 0
  m_StitchLightmapSeams: 1
  m_SelectedEditorRenderState: 0
  m_MinimumChartSize: 4
  m_AutoUVMaxDistance: 0.5
  m_AutoUVMaxAngle: 89
  m_LightmapParameters: {fileID: 0}
  m_SortingLayerID: 0
  m_SortingLayer: 0
  m_SortingOrder: 0
  m_ChunkSize: {x: 32, y: 32, z: 32}
  m_ChunkCullingBounds: {x: 0, y: 0, z: 0}
  m_MaxChunkCount: 16
  m_MaxFrameAge: 16
  m_SortOrder: 0
  m_Mode: 0
  m_DetectChunkCullingBounds: 0
  m_MaskInteraction: 0
--- !u!114 &-6624415894192456020
MonoBehaviour:
  m_ObjectHideFlags: 0
  m_CorrespondingSourceObject: {fileID: 0}
  m_PrefabInstance: {fileID: 0}
  m_PrefabAsset: {fileID: 0}
  m_GameObject: {fileID: 0}
  m_Enabled: 1
  m_EditorHideFlags: 0
  m_Script: {fileID: 12395, guid: 0000000000000000e000000000000000, type: 0}
  m_Name: Palette Settings
  m_EditorClassIdentifier: 
  cellSizing: 0
